<mxfile host="app.diagrams.net" modified="2022-03-04T01:08:52.916Z" agent="5.0 (Windows NT 10.0; Win64; x64) AppleWebKit/537.36 (KHTML, like Gecko) Chrome/98.0.4758.102 Safari/537.36 Edg/98.0.1108.62" etag="cNwbDSXQrZsTQZCgHgMx" version="16.6.5" type="gitlab">
  <diagram id="aRrlY9CvDnAV9BvrndbH" name="Page-1">
    <mxGraphModel dx="1853" dy="734" grid="1" gridSize="10" guides="1" tooltips="1" connect="1" arrows="1" fold="1" page="1" pageScale="1" pageWidth="850" pageHeight="1100" math="0" shadow="0">
      <root>
        <mxCell id="0" />
        <mxCell id="1" parent="0" />
        <mxCell id="GWZmfutcEnFVLhkD4cJM-8" value="" style="html=1;dropTarget=0;" vertex="1" parent="1">
          <mxGeometry x="-725" y="230" width="265" height="170" as="geometry" />
        </mxCell>
        <mxCell id="GWZmfutcEnFVLhkD4cJM-9" value="" style="shape=module;jettyWidth=8;jettyHeight=4;" vertex="1" parent="GWZmfutcEnFVLhkD4cJM-8">
          <mxGeometry x="1" width="20" height="20" relative="1" as="geometry">
            <mxPoint x="-27" y="7" as="offset" />
          </mxGeometry>
        </mxCell>
        <mxCell id="GWZmfutcEnFVLhkD4cJM-2" value="" style="rounded=0;orthogonalLoop=1;jettySize=auto;html=1;endArrow=none;endFill=0;sketch=0;sourcePerimeterSpacing=0;targetPerimeterSpacing=0;exitX=0.5;exitY=0;exitDx=0;exitDy=0;" edge="1" target="GWZmfutcEnFVLhkD4cJM-4" parent="1" source="GWZmfutcEnFVLhkD4cJM-17">
          <mxGeometry relative="1" as="geometry">
            <mxPoint x="-340" y="165" as="sourcePoint" />
          </mxGeometry>
        </mxCell>
        <mxCell id="GWZmfutcEnFVLhkD4cJM-3" value="" style="rounded=0;orthogonalLoop=1;jettySize=auto;html=1;endArrow=halfCircle;endFill=0;endSize=6;strokeWidth=1;sketch=0;exitX=0.456;exitY=0.933;exitDx=0;exitDy=0;exitPerimeter=0;" edge="1" parent="1">
          <mxGeometry relative="1" as="geometry">
            <mxPoint x="-594.24" y="141.99" as="sourcePoint" />
            <mxPoint x="-595" y="194" as="targetPoint" />
          </mxGeometry>
        </mxCell>
        <mxCell id="GWZmfutcEnFVLhkD4cJM-4" value="" style="ellipse;whiteSpace=wrap;html=1;align=center;aspect=fixed;resizable=0;points=[];outlineConnect=0;sketch=0;" vertex="1" parent="1">
          <mxGeometry x="-599.5" y="190" width="10" height="10" as="geometry" />
        </mxCell>
        <mxCell id="GWZmfutcEnFVLhkD4cJM-12" value="&lt;b&gt;Data APIs&lt;/b&gt;" style="text;html=1;strokeColor=none;fillColor=none;align=center;verticalAlign=middle;whiteSpace=wrap;rounded=0;" vertex="1" parent="1">
          <mxGeometry x="-710" y="230" width="160" height="30" as="geometry" />
        </mxCell>
        <mxCell id="GWZmfutcEnFVLhkD4cJM-13" value="&lt;p style=&quot;margin: 0px ; margin-top: 6px ; text-align: center&quot;&gt;&lt;b&gt;External Data Sources&lt;/b&gt;&lt;/p&gt;" style="align=left;overflow=fill;html=1;dropTarget=0;" vertex="1" parent="1">
          <mxGeometry x="-698" y="120" width="210" height="30" as="geometry" />
        </mxCell>
        <mxCell id="GWZmfutcEnFVLhkD4cJM-14" value="" style="shape=component;jettyWidth=8;jettyHeight=4;" vertex="1" parent="GWZmfutcEnFVLhkD4cJM-13">
          <mxGeometry x="1" width="20" height="20" relative="1" as="geometry">
            <mxPoint x="-24" y="4" as="offset" />
          </mxGeometry>
        </mxCell>
        <mxCell id="GWZmfutcEnFVLhkD4cJM-16" value="&lt;b&gt;REST&lt;/b&gt;" style="text;html=1;strokeColor=none;fillColor=none;align=center;verticalAlign=middle;whiteSpace=wrap;rounded=0;" vertex="1" parent="1">
          <mxGeometry x="-580" y="180" width="70" height="30" as="geometry" />
        </mxCell>
        <mxCell id="GWZmfutcEnFVLhkD4cJM-17" value="&lt;p style=&quot;margin: 0px ; margin-top: 6px ; text-align: center&quot;&gt;&amp;lt;&amp;lt;package&amp;gt;&amp;gt;&lt;/p&gt;&lt;p style=&quot;margin: 0px ; margin-top: 6px ; text-align: center&quot;&gt;&lt;b&gt;Data Management&amp;nbsp;&lt;/b&gt;&lt;b&gt;Services&lt;/b&gt;&lt;/p&gt;" style="align=left;overflow=fill;html=1;dropTarget=0;" vertex="1" parent="1">
          <mxGeometry x="-710" y="260" width="230" height="50" as="geometry" />
        </mxCell>
        <mxCell id="GWZmfutcEnFVLhkD4cJM-18" value="" style="shape=component;jettyWidth=8;jettyHeight=4;" vertex="1" parent="GWZmfutcEnFVLhkD4cJM-17">
          <mxGeometry x="1" width="20" height="20" relative="1" as="geometry">
            <mxPoint x="-24" y="4" as="offset" />
          </mxGeometry>
        </mxCell>
        <mxCell id="GWZmfutcEnFVLhkD4cJM-23" value="&lt;p style=&quot;margin: 0px ; margin-top: 6px ; text-align: center&quot;&gt;&amp;lt;&amp;lt;application&amp;gt;&amp;gt;&lt;/p&gt;&lt;p style=&quot;margin: 0px ; margin-top: 6px ; text-align: center&quot;&gt;&lt;b&gt;Kong&lt;/b&gt;&lt;/p&gt;" style="align=left;overflow=fill;html=1;dropTarget=0;" vertex="1" parent="1">
          <mxGeometry x="-710" y="330" width="230" height="50" as="geometry" />
        </mxCell>
        <mxCell id="GWZmfutcEnFVLhkD4cJM-24" value="" style="shape=component;jettyWidth=8;jettyHeight=4;" vertex="1" parent="GWZmfutcEnFVLhkD4cJM-23">
          <mxGeometry x="1" width="20" height="20" relative="1" as="geometry">
            <mxPoint x="-24" y="4" as="offset" />
          </mxGeometry>
        </mxCell>
        <mxCell id="GWZmfutcEnFVLhkD4cJM-25" value="&lt;p style=&quot;margin: 0px ; margin-top: 6px ; text-align: center&quot;&gt;&lt;b&gt;Dashboard Generator&lt;/b&gt;&lt;/p&gt;" style="align=left;overflow=fill;html=1;dropTarget=0;" vertex="1" parent="1">
          <mxGeometry x="-380" y="230" width="240" height="340" as="geometry" />
        </mxCell>
        <mxCell id="GWZmfutcEnFVLhkD4cJM-26" value="" style="shape=component;jettyWidth=8;jettyHeight=4;" vertex="1" parent="GWZmfutcEnFVLhkD4cJM-25">
          <mxGeometry x="1" width="20" height="20" relative="1" as="geometry">
            <mxPoint x="-24" y="4" as="offset" />
          </mxGeometry>
        </mxCell>
        <mxCell id="GWZmfutcEnFVLhkD4cJM-27" value="Assumed that External Data Sources use REST" style="shape=note;strokeWidth=2;fontSize=14;size=20;whiteSpace=wrap;html=1;fillColor=#ffe6cc;strokeColor=#d79b00;" vertex="1" parent="1">
          <mxGeometry x="-770" y="140" width="120" height="70" as="geometry" />
        </mxCell>
        <mxCell id="GWZmfutcEnFVLhkD4cJM-30" value="&lt;p style=&quot;margin: 0px ; margin-top: 6px ; text-align: center&quot;&gt;&amp;lt;&amp;lt;application&amp;gt;&amp;gt;&lt;/p&gt;&lt;p style=&quot;margin: 0px ; margin-top: 6px ; text-align: center&quot;&gt;&lt;b&gt;Drupal&lt;/b&gt;&lt;/p&gt;" style="align=left;overflow=fill;html=1;dropTarget=0;" vertex="1" parent="1">
          <mxGeometry x="-350" y="264" width="180" height="42" as="geometry" />
        </mxCell>
        <mxCell id="GWZmfutcEnFVLhkD4cJM-31" value="" style="shape=component;jettyWidth=8;jettyHeight=4;" vertex="1" parent="GWZmfutcEnFVLhkD4cJM-30">
          <mxGeometry x="1" width="20" height="20" relative="1" as="geometry">
            <mxPoint x="-24" y="4" as="offset" />
          </mxGeometry>
        </mxCell>
        <mxCell id="GWZmfutcEnFVLhkD4cJM-32" value="&lt;p style=&quot;margin: 0px ; margin-top: 6px ; text-align: center&quot;&gt;&amp;lt;&amp;lt;service&amp;gt;&amp;gt;&lt;/p&gt;&lt;p style=&quot;margin: 0px ; margin-top: 6px ; text-align: center&quot;&gt;&lt;b&gt;Load Data&lt;/b&gt;&lt;/p&gt;" style="align=left;overflow=fill;html=1;dropTarget=0;" vertex="1" parent="1">
          <mxGeometry x="-350" y="320" width="180" height="42" as="geometry" />
        </mxCell>
        <mxCell id="GWZmfutcEnFVLhkD4cJM-33" value="" style="shape=component;jettyWidth=8;jettyHeight=4;" vertex="1" parent="GWZmfutcEnFVLhkD4cJM-32">
          <mxGeometry x="1" width="20" height="20" relative="1" as="geometry">
            <mxPoint x="-24" y="4" as="offset" />
          </mxGeometry>
        </mxCell>
        <mxCell id="GWZmfutcEnFVLhkD4cJM-34" value="&lt;p style=&quot;margin: 0px ; margin-top: 6px ; text-align: center&quot;&gt;&amp;lt;&amp;lt;service&amp;gt;&amp;gt;&lt;/p&gt;&lt;p style=&quot;margin: 0px ; margin-top: 6px ; text-align: center&quot;&gt;&lt;b&gt;Query Data for Dashboard&lt;/b&gt;&lt;/p&gt;" style="align=left;overflow=fill;html=1;dropTarget=0;" vertex="1" parent="1">
          <mxGeometry x="-350" y="380" width="180" height="42" as="geometry" />
        </mxCell>
        <mxCell id="GWZmfutcEnFVLhkD4cJM-35" value="" style="shape=component;jettyWidth=8;jettyHeight=4;" vertex="1" parent="GWZmfutcEnFVLhkD4cJM-34">
          <mxGeometry x="1" width="20" height="20" relative="1" as="geometry">
            <mxPoint x="-24" y="4" as="offset" />
          </mxGeometry>
        </mxCell>
        <mxCell id="GWZmfutcEnFVLhkD4cJM-36" value="&lt;p style=&quot;margin: 0px ; margin-top: 6px ; text-align: center&quot;&gt;&amp;lt;&amp;lt;service&amp;gt;&amp;gt;&lt;/p&gt;&lt;p style=&quot;margin: 0px ; margin-top: 6px ; text-align: center&quot;&gt;&lt;b&gt;Generate Dashboard Display&lt;/b&gt;&lt;/p&gt;" style="align=left;overflow=fill;html=1;dropTarget=0;" vertex="1" parent="1">
          <mxGeometry x="-350" y="440" width="180" height="42" as="geometry" />
        </mxCell>
        <mxCell id="GWZmfutcEnFVLhkD4cJM-37" value="" style="shape=component;jettyWidth=8;jettyHeight=4;" vertex="1" parent="GWZmfutcEnFVLhkD4cJM-36">
          <mxGeometry x="1" width="20" height="20" relative="1" as="geometry">
            <mxPoint x="-24" y="4" as="offset" />
          </mxGeometry>
        </mxCell>
        <mxCell id="GWZmfutcEnFVLhkD4cJM-38" value="&lt;p style=&quot;margin: 0px ; margin-top: 6px ; text-align: center&quot;&gt;&lt;b&gt;User iPhone&lt;/b&gt;&lt;/p&gt;" style="align=left;overflow=fill;html=1;dropTarget=0;" vertex="1" parent="1">
          <mxGeometry x="30" y="330" width="240" height="100" as="geometry" />
        </mxCell>
        <mxCell id="GWZmfutcEnFVLhkD4cJM-39" value="" style="shape=component;jettyWidth=8;jettyHeight=4;" vertex="1" parent="GWZmfutcEnFVLhkD4cJM-38">
          <mxGeometry x="1" width="20" height="20" relative="1" as="geometry">
            <mxPoint x="-24" y="4" as="offset" />
          </mxGeometry>
        </mxCell>
        <mxCell id="GWZmfutcEnFVLhkD4cJM-40" value="&lt;p style=&quot;margin: 0px ; margin-top: 6px ; text-align: center&quot;&gt;&amp;lt;&amp;lt;application&amp;gt;&amp;gt;&lt;/p&gt;&lt;p style=&quot;margin: 0px ; margin-top: 6px ; text-align: center&quot;&gt;&lt;b&gt;Dashboard iOS App&lt;/b&gt;&lt;/p&gt;" style="align=left;overflow=fill;html=1;dropTarget=0;" vertex="1" parent="1">
          <mxGeometry x="60" y="364" width="180" height="42" as="geometry" />
        </mxCell>
        <mxCell id="GWZmfutcEnFVLhkD4cJM-41" value="" style="shape=component;jettyWidth=8;jettyHeight=4;" vertex="1" parent="GWZmfutcEnFVLhkD4cJM-40">
          <mxGeometry x="1" width="20" height="20" relative="1" as="geometry">
            <mxPoint x="-24" y="4" as="offset" />
          </mxGeometry>
        </mxCell>
        <mxCell id="GWZmfutcEnFVLhkD4cJM-48" value="What is mechanism for user authentication for data retrieval/dashboard display?" style="shape=note;strokeWidth=2;fontSize=14;size=20;whiteSpace=wrap;html=1;fillColor=#ffe6cc;strokeColor=#d79b00;" vertex="1" parent="1">
          <mxGeometry x="30" y="236" width="230" height="70" as="geometry" />
        </mxCell>
        <mxCell id="GWZmfutcEnFVLhkD4cJM-49" value="&lt;p style=&quot;margin: 0px ; margin-top: 6px ; text-align: center&quot;&gt;&lt;b&gt;Web Access&lt;/b&gt;&lt;/p&gt;" style="align=left;overflow=fill;html=1;dropTarget=0;" vertex="1" parent="1">
          <mxGeometry x="32" y="457" width="240" height="100" as="geometry" />
        </mxCell>
        <mxCell id="GWZmfutcEnFVLhkD4cJM-50" value="" style="shape=component;jettyWidth=8;jettyHeight=4;" vertex="1" parent="GWZmfutcEnFVLhkD4cJM-49">
          <mxGeometry x="1" width="20" height="20" relative="1" as="geometry">
            <mxPoint x="-24" y="4" as="offset" />
          </mxGeometry>
        </mxCell>
        <mxCell id="GWZmfutcEnFVLhkD4cJM-51" value="&lt;p style=&quot;margin: 0px ; margin-top: 6px ; text-align: center&quot;&gt;&amp;lt;&amp;lt;application&amp;gt;&amp;gt;&lt;/p&gt;&lt;p style=&quot;margin: 0px ; margin-top: 6px ; text-align: center&quot;&gt;&lt;b&gt;Web Browser&lt;/b&gt;&lt;/p&gt;" style="align=left;overflow=fill;html=1;dropTarget=0;" vertex="1" parent="1">
          <mxGeometry x="65" y="491" width="180" height="42" as="geometry" />
        </mxCell>
        <mxCell id="GWZmfutcEnFVLhkD4cJM-52" value="" style="shape=component;jettyWidth=8;jettyHeight=4;" vertex="1" parent="GWZmfutcEnFVLhkD4cJM-51">
          <mxGeometry x="1" width="20" height="20" relative="1" as="geometry">
            <mxPoint x="-24" y="4" as="offset" />
          </mxGeometry>
        </mxCell>
        <mxCell id="GWZmfutcEnFVLhkD4cJM-53" value="&lt;p style=&quot;margin: 0px ; margin-top: 6px ; text-align: center&quot;&gt;&amp;lt;&amp;lt;database&amp;gt;&amp;gt;&lt;/p&gt;&lt;p style=&quot;margin: 0px ; margin-top: 6px ; text-align: center&quot;&gt;&lt;b&gt;Drupal Native Storage&lt;/b&gt;&lt;/p&gt;" style="align=left;overflow=fill;html=1;dropTarget=0;" vertex="1" parent="1">
          <mxGeometry x="-350" y="500" width="180" height="42" as="geometry" />
        </mxCell>
        <mxCell id="GWZmfutcEnFVLhkD4cJM-54" value="" style="shape=component;jettyWidth=8;jettyHeight=4;" vertex="1" parent="GWZmfutcEnFVLhkD4cJM-53">
          <mxGeometry x="1" width="20" height="20" relative="1" as="geometry">
            <mxPoint x="-24" y="4" as="offset" />
          </mxGeometry>
        </mxCell>
        <mxCell id="GWZmfutcEnFVLhkD4cJM-57" value="" style="rounded=0;orthogonalLoop=1;jettySize=auto;html=1;endArrow=none;endFill=0;sketch=0;sourcePerimeterSpacing=0;targetPerimeterSpacing=0;" edge="1" target="GWZmfutcEnFVLhkD4cJM-59" parent="1">
          <mxGeometry relative="1" as="geometry">
            <mxPoint x="-440" y="285" as="sourcePoint" />
          </mxGeometry>
        </mxCell>
        <mxCell id="GWZmfutcEnFVLhkD4cJM-58" value="" style="rounded=0;orthogonalLoop=1;jettySize=auto;html=1;endArrow=halfCircle;endFill=0;entryX=0.5;entryY=0.5;endSize=6;strokeWidth=1;sketch=0;" edge="1" target="GWZmfutcEnFVLhkD4cJM-59" parent="1">
          <mxGeometry relative="1" as="geometry">
            <mxPoint x="-400" y="285" as="sourcePoint" />
          </mxGeometry>
        </mxCell>
        <mxCell id="GWZmfutcEnFVLhkD4cJM-62" style="edgeStyle=orthogonalEdgeStyle;rounded=0;orthogonalLoop=1;jettySize=auto;html=1;entryX=1;entryY=0.5;entryDx=0;entryDy=0;endArrow=none;endFill=0;" edge="1" parent="1" source="GWZmfutcEnFVLhkD4cJM-59" target="GWZmfutcEnFVLhkD4cJM-17">
          <mxGeometry relative="1" as="geometry" />
        </mxCell>
        <mxCell id="GWZmfutcEnFVLhkD4cJM-63" value="" style="edgeStyle=orthogonalEdgeStyle;rounded=0;orthogonalLoop=1;jettySize=auto;html=1;entryX=0;entryY=0.5;entryDx=0;entryDy=0;endArrow=none;endFill=0;" edge="1" parent="1" source="GWZmfutcEnFVLhkD4cJM-59" target="GWZmfutcEnFVLhkD4cJM-32">
          <mxGeometry relative="1" as="geometry">
            <Array as="points">
              <mxPoint x="-400" y="285" />
              <mxPoint x="-400" y="341" />
            </Array>
          </mxGeometry>
        </mxCell>
        <mxCell id="GWZmfutcEnFVLhkD4cJM-59" value="" style="ellipse;whiteSpace=wrap;html=1;align=center;aspect=fixed;resizable=0;points=[];outlineConnect=0;sketch=0;" vertex="1" parent="1">
          <mxGeometry x="-425" y="280" width="10" height="10" as="geometry" />
        </mxCell>
        <mxCell id="GWZmfutcEnFVLhkD4cJM-64" value="" style="rounded=0;orthogonalLoop=1;jettySize=auto;html=1;endArrow=none;endFill=0;sketch=0;sourcePerimeterSpacing=0;targetPerimeterSpacing=0;exitX=1;exitY=0.5;exitDx=0;exitDy=0;" edge="1" target="GWZmfutcEnFVLhkD4cJM-66" parent="1" source="GWZmfutcEnFVLhkD4cJM-36">
          <mxGeometry relative="1" as="geometry">
            <mxPoint x="-130" y="457" as="sourcePoint" />
          </mxGeometry>
        </mxCell>
        <mxCell id="GWZmfutcEnFVLhkD4cJM-65" value="" style="rounded=0;orthogonalLoop=1;jettySize=auto;html=1;endArrow=halfCircle;endFill=0;endSize=6;strokeWidth=1;sketch=0;exitX=0;exitY=0.5;exitDx=0;exitDy=0;" edge="1" target="GWZmfutcEnFVLhkD4cJM-66" parent="1" source="GWZmfutcEnFVLhkD4cJM-40">
          <mxGeometry relative="1" as="geometry">
            <mxPoint x="-80" y="460" as="sourcePoint" />
            <Array as="points">
              <mxPoint x="-20" y="385" />
              <mxPoint x="-20" y="460" />
            </Array>
          </mxGeometry>
        </mxCell>
        <mxCell id="GWZmfutcEnFVLhkD4cJM-75" style="edgeStyle=orthogonalEdgeStyle;rounded=0;orthogonalLoop=1;jettySize=auto;html=1;entryX=0;entryY=0.5;entryDx=0;entryDy=0;endArrow=none;endFill=0;" edge="1" parent="1" target="GWZmfutcEnFVLhkD4cJM-51">
          <mxGeometry relative="1" as="geometry">
            <mxPoint x="-90" y="460" as="sourcePoint" />
            <Array as="points">
              <mxPoint x="-50" y="461" />
              <mxPoint x="-50" y="512" />
            </Array>
          </mxGeometry>
        </mxCell>
        <mxCell id="GWZmfutcEnFVLhkD4cJM-66" value="" style="ellipse;whiteSpace=wrap;html=1;align=center;aspect=fixed;resizable=0;points=[];outlineConnect=0;sketch=0;rotation=75;" vertex="1" parent="1">
          <mxGeometry x="-115" y="456" width="10" height="10" as="geometry" />
        </mxCell>
        <mxCell id="GWZmfutcEnFVLhkD4cJM-77" value="&lt;b&gt;Component Diagram&lt;br&gt;Data Dasbhoard - iOS and Web&lt;br&gt;Intial Draft - 3 March 2022&lt;br&gt;&lt;/b&gt;" style="rounded=0;whiteSpace=wrap;html=1;" vertex="1" parent="1">
          <mxGeometry x="-810" y="20" width="230" height="60" as="geometry" />
        </mxCell>
        <mxCell id="GWZmfutcEnFVLhkD4cJM-78" value="Diagram Purpose: This diagram shows how the parts of the system interaction with one another logically. The ball-and-socket symbol shows where the interfaces take place where boxes show each logical component." style="rounded=0;whiteSpace=wrap;html=1;align=left;" vertex="1" parent="1">
          <mxGeometry x="-415" y="20" width="395" height="70" as="geometry" />
        </mxCell>
        <mxCell id="GWZmfutcEnFVLhkD4cJM-80" value="&lt;b&gt;REST&lt;/b&gt;" style="text;html=1;strokeColor=none;fillColor=none;align=center;verticalAlign=middle;whiteSpace=wrap;rounded=0;" vertex="1" parent="1">
          <mxGeometry x="-130" y="470" width="70" height="30" as="geometry" />
        </mxCell>
        <mxCell id="GWZmfutcEnFVLhkD4cJM-81" value="&lt;b&gt;REST&lt;/b&gt;" style="text;html=1;strokeColor=none;fillColor=none;align=center;verticalAlign=middle;whiteSpace=wrap;rounded=0;" vertex="1" parent="1">
          <mxGeometry x="-460" y="300" width="70" height="30" as="geometry" />
        </mxCell>
      </root>
    </mxGraphModel>
  </diagram>
</mxfile>
